%YAML 1.1
%TAG !u! tag:unity3d.com,2011:
--- !u!114 &11400000
MonoBehaviour:
  m_ObjectHideFlags: 0
  m_CorrespondingSourceObject: {fileID: 0}
  m_PrefabInstance: {fileID: 0}
  m_PrefabAsset: {fileID: 0}
  m_GameObject: {fileID: 0}
  m_Enabled: 1
  m_EditorHideFlags: 0
  m_Script: {fileID: 11500000, guid: f7dfd555a890bf749b8e9c7173f4fdba, type: 3}
  m_Name: BlackPieces
  m_EditorClassIdentifier: 
  _pairs:
  - Key: King
    Value: {fileID: 21300000, guid: d8ac4b0cb298de04ea2ec07605707d45, type: 3}
  - Key: Queen
    Value: {fileID: 21300000, guid: 4883ee512e486a24c883ae339e42fc94, type: 3}
  - Key: Bishop
    Value: {fileID: 21300000, guid: 7b8ffecee96c1e94e8f87adfe711dd11, type: 3}
  - Key: Knight
    Value: {fileID: 21300000, guid: cbf707677a31b874bb1c2339e56946e2, type: 3}
  - Key: Rook
    Value: {fileID: 21300000, guid: ece72522555f34c4e949e51e5d84a10b, type: 3}
  - Key: Pawn
    Value: {fileID: 21300000, guid: 08417fde79661aa47bc16228124d1a58, type: 3}
